module gitlab.com/flex_comp/remote_conf

go 1.17

require (
	github.com/spf13/viper v1.9.0
	gitlab.com/flex_comp/comp v0.1.4
	gitlab.com/flex_comp/log v0.1.4
	gitlab.com/flex_comp/util v0.2.5
)

require (
	cloud.google.com/go v0.93.3 // indirect
	cloud.google.com/go/firestore v1.6.0 // indirect
	github.com/FactomProject/basen v0.0.0-20150613233007-fe3947df716e // indirect
	github.com/FactomProject/btcutilecc v0.0.0-20130527213604-d3a63a5752ec // indirect
	github.com/armon/go-metrics v0.0.0-20180917152333-f0300d1749da // indirect
	github.com/coreos/go-semver v0.3.0 // indirect
	github.com/fatih/color v1.9.0 // indirect
	github.com/fsnotify/fsnotify v1.5.1 // indirect
	github.com/golang/groupcache v0.0.0-20200121045136-8c9f03a8e57e // indirect
	github.com/golang/protobuf v1.5.2 // indirect
	github.com/google/go-cmp v0.5.6 // indirect
	github.com/googleapis/gax-go/v2 v2.1.0 // indirect
	github.com/hashicorp/consul/api v1.10.1 // indirect
	github.com/hashicorp/go-cleanhttp v0.5.1 // indirect
	github.com/hashicorp/go-hclog v0.12.0 // indirect
	github.com/hashicorp/go-immutable-radix v1.0.0 // indirect
	github.com/hashicorp/go-rootcerts v1.0.2 // indirect
	github.com/hashicorp/golang-lru v0.5.1 // indirect
	github.com/hashicorp/hcl v1.0.0 // indirect
	github.com/hashicorp/serf v0.9.5 // indirect
	github.com/json-iterator/go v1.1.11 // indirect
	github.com/lazybeaver/xorshift v0.0.0-20170702203709-ce511d4823dd // indirect
	github.com/magiconair/properties v1.8.5 // indirect
	github.com/mattn/go-colorable v0.1.6 // indirect
	github.com/mattn/go-isatty v0.0.12 // indirect
	github.com/mitchellh/go-homedir v1.1.0 // indirect
	github.com/mitchellh/mapstructure v1.4.2 // indirect
	github.com/modern-go/concurrent v0.0.0-20180228061459-e0a39a4cb421 // indirect
	github.com/modern-go/reflect2 v1.0.1 // indirect
	github.com/pelletier/go-toml v1.9.4 // indirect
	github.com/sagikazarmark/crypt v0.1.0 // indirect
	github.com/spf13/afero v1.6.0 // indirect
	github.com/spf13/cast v1.4.1 // indirect
	github.com/spf13/jwalterweatherman v1.1.0 // indirect
	github.com/spf13/pflag v1.0.5 // indirect
	github.com/subosito/gotenv v1.2.0 // indirect
	github.com/tyler-smith/go-bip32 v1.0.0 // indirect
	github.com/tyler-smith/go-bip39 v1.1.0 // indirect
	go.etcd.io/etcd/api/v3 v3.5.0 // indirect
	go.etcd.io/etcd/client/pkg/v3 v3.5.0 // indirect
	go.etcd.io/etcd/client/v2 v2.305.0 // indirect
	go.opencensus.io v0.23.0 // indirect
	go.uber.org/atomic v1.7.0 // indirect
	go.uber.org/multierr v1.6.0 // indirect
	go.uber.org/zap v1.18.1 // indirect
	golang.org/x/crypto v0.0.0-20210817164053-32db794688a5 // indirect
	golang.org/x/net v0.0.0-20210503060351-7fd8e65b6420 // indirect
	golang.org/x/oauth2 v0.0.0-20210819190943-2bc19b11175f // indirect
	golang.org/x/sys v0.0.0-20210823070655-63515b42dcdf // indirect
	golang.org/x/text v0.3.6 // indirect
	google.golang.org/api v0.56.0 // indirect
	google.golang.org/appengine v1.6.7 // indirect
	google.golang.org/genproto v0.0.0-20210828152312-66f60bf46e71 // indirect
	google.golang.org/grpc v1.40.0 // indirect
	google.golang.org/protobuf v1.27.1 // indirect
	gopkg.in/ini.v1 v1.63.2 // indirect
	gopkg.in/natefinch/lumberjack.v2 v2.0.0 // indirect
	gopkg.in/yaml.v2 v2.4.0 // indirect
)
